<svg xmlns="http://www.w3.org/2000/svg" width="39" height="40" fill="none" viewBox="0 0 39 40">
    <path fill="#19232D" fill-rule="evenodd" d="M19.597 25.264c5.61 0 10.156-4.495 10.156-10.041V3.362c0-1.508-1.239-2.74-2.771-2.74-1.526 0-2.772 1.224-2.772 2.74V15.223c0 2.523-2.068 4.56-4.613 4.56-2.552 0-4.613-2.044-4.613-4.56V3.362c0-1.508-1.239-2.74-2.771-2.74-1.533 0-2.772 1.224-2.772 2.74v11.86c0 5.547 4.546 10.042 10.156 10.042zM3.684 35.451c0 .906-.396 1.327-.975 1.327-.558 0-.807-.414-.807-1.11v-2.494H.604v2.712c0 1.24.63 2.066 1.775 2.066.601 0 1.048-.261 1.298-.638v.53h1.298v-4.67H3.677v2.277h.007zm7.56-3.582h1.291v1.298h1.335v1.124h-1.335v1.66c0 .573.25.797.807.797.205 0 .374-.029.528-.087v1.132c-.205.065-.462.101-.821.101-.998 0-1.804-.551-1.804-1.69V31.87zm20.863 0h-1.29v4.336c0 1.138.806 1.69 1.804 1.69.359 0 .616-.037.821-.102V36.66c-.154.058-.323.087-.528.087-.557 0-.807-.224-.807-.797v-1.66h1.335v-1.124h-1.335v-1.298zm6.475 3.495c0-1.515-1.085-2.298-2.324-2.298-1.438 0-2.486 1.058-2.486 2.435 0 1.48 1.092 2.437 2.508 2.437.99 0 1.76-.421 2.192-1.044l-.968-.711c-.205.319-.63.587-1.217.587-.623 0-1.18-.348-1.254-.971h3.535c.014-.196.014-.327.014-.435zm-3.505-.428c.125-.573.66-.812 1.144-.812.484 0 .953.261 1.07.812h-2.214zm-20.892.566c0-1.364 1.114-2.437 2.486-2.437 1.371 0 2.486 1.074 2.486 2.437 0 1.362-1.115 2.436-2.486 2.436-1.371 0-2.486-1.074-2.486-2.437zm1.202.007c0 .696.572 1.269 1.284 1.269.711 0 1.29-.573 1.283-1.27 0-.703-.572-1.268-1.283-1.268-.704 0-1.284.566-1.284 1.269zm7.752-1.929c-.117-.246-.697-.55-1.364-.514-1.254.072-2.222 1.109-2.222 2.435 0 1.327.968 2.437 2.222 2.437.653 0 1.151-.327 1.364-.624v.522h1.29v-7.01h-1.29v2.754zm-1.144 3.198c-.712 0-1.284-.573-1.284-1.27 0-.703.58-1.268 1.284-1.268.711 0 1.283.573 1.283 1.269.008.696-.572 1.269-1.283 1.269zm5.192-3.712c.667-.037 1.246.26 1.364.514v-.413h1.298v4.67H28.55v-.523c-.213.297-.712.624-1.364.624-1.254 0-2.222-1.11-2.222-2.437 0-1.326.968-2.363 2.222-2.435zm-1.064 2.443c0 .696.572 1.269 1.284 1.269.704 0 1.283-.573 1.283-1.27 0-.703-.572-1.268-1.283-1.268-.712 0-1.284.566-1.284 1.269zm-17.658-2.45c-.652 0-1.151.326-1.364.623v-.522h-1.29v6.626H7.1v-2.363c.118.246.697.55 1.357.515 1.254-.073 2.222-1.11 2.222-2.437 0-1.326-.96-2.443-2.215-2.443zm-.22 3.711c-.711 0-1.283-.573-1.283-1.269 0-.703.58-1.268 1.283-1.268.712 0 1.284.573 1.284 1.269 0 .703-.572 1.268-1.284 1.268z" clip-rule="evenodd"/>
</svg>
