{
  "graphql": {
    "url": "http://localhost:5050",
    "cognitoClientId": "",
    "cognitoUserPoolId": "",
    "cognitoUsername": "",
    "cognitoPassword": ""
  },
  "gimmick": {
    "apiUrl": "https://jek501i41f.execute-api.eu-central-1.amazonaws.com"
  },
  "consentTracker": {
    "apiUrl": "https://dev-api.uptodate.de/consent-tracker"
  },
  "crimeCheck": {
    "apiUrl": "https://uwgisja6u5.execute-api.eu-central-1.amazonaws.com"
  },
  "menu": {
    "apiUrl": "https://www.dev.app.uptodate.de/pages/menu-api"
  },
  "faceSwap": {
    "apiUrl": "https://6nul9srb37.execute-api.eu-central-1.amazonaws.com/dev"
  },
  "shop": {
    "shopId": "shopId"
  }
}
